[{
        "site": "Ministerio de Educación",
        "head": "Legalización de documentos de educación superior para adelantar estudios o trabajar en el exterior",
        "aval": true,
        "price": "Trámite con costo"
    },
    {
        "site": "Instituto Colombiano de Bienestar Familiar - ICBF",
        "head": "Adopción de un niño, niña o adolescente por persona, cónyuges o compañeros permanentes residentes en Colombia",
        "aval": false,
        "price": "Trámite gratuito"
    },
    {
        "site": "Ministerio de Justicia",
        "head": "Agendamiento de citas para consultorio jurídico",
        "aval": true,
        "price": "Trámite gratuito"
    },
    {
        "site": "Servicio Nacional de Aprendizaje - SENA",
        "head": "Agendamiento de citas para consultorio jurídico",
        "aval": true,
        "price": "Trámite gratuito"
    }
]